<svg xmlns="http://www.w3.org/2000/svg" width="57.622" height="57.667" viewBox="0 0 57.622 57.667">
  <g id="btn-cancel" transform="translate(-1053.711 1467.333)">
    <ellipse id="Ellipse_20" data-name="Ellipse 20" cx="27.359" cy="27.381" rx="27.359" ry="27.381" transform="translate(1055 -1465.998)" fill="#fff"/>
    <g id="g92" transform="translate(1055.045 -1466)">
      <path id="path94" d="M0-.119a27.489,27.489,0,0,1,27.479-27.5A27.489,27.489,0,0,1,54.955-.119a27.488,27.488,0,0,1-27.476,27.5A27.488,27.488,0,0,1,0-.119Z" transform="translate(0 27.619)" fill="none" stroke="red" stroke-miterlimit="10" stroke-width="2.667"/>
    </g>
    <g id="g1404" transform="translate(1072.018 -1449.572)">
      <path id="path1406" d="M0,0,21.008-21.008" transform="translate(0 21.008)" fill="none" stroke="red" stroke-miterlimit="10" stroke-width="2.667"/>
    </g>
    <g id="g1412" transform="translate(1072.018 -1449.572)">
      <path id="path1414" d="M0,0,21.008,21.008" fill="none" stroke="red" stroke-miterlimit="10" stroke-width="2.667"/>
    </g>
    <g id="btn-cancel-2" data-name="btn-cancel" transform="translate(1055.045 -1466)">
      <path id="path94-2" data-name="path94" d="M0-.119a27.489,27.489,0,0,1,27.479-27.5A27.489,27.489,0,0,1,54.955-.119a27.488,27.488,0,0,1-27.476,27.5A27.488,27.488,0,0,1,0-.119Z" transform="translate(0 27.619)" fill="none" stroke="red" stroke-miterlimit="10" stroke-width="2.667"/>
    </g>
  </g>
</svg>
