<?xml version="1.0" encoding="UTF-8"?>
<svg width="59px" height="48px" viewBox="0 0 59 48" version="1.1" xmlns="http://www.w3.org/2000/svg" xmlns:xlink="http://www.w3.org/1999/xlink">
    <!-- Generator: Sketch 57.1 (83088) - https://sketch.com -->
    <title>Untitled</title>
    <desc>Created with Sketch.</desc>
    <g id="Page-1" stroke="none" stroke-width="1" fill="none" fill-rule="evenodd">
        <g id="Group" transform="translate(0.000000, 0.000000)" fill="#FF5E00" fill-rule="nonzero">
            <path d="M30.4606545,21.0235151 C29.1832401,22.4091352 27.5786338,23.4521607 25.7937556,24.0570908 L26.4742444,26.0649092 C28.5949953,25.3461454 30.5015514,24.1068466 32.0193455,22.4604849 L30.4606545,21.0235151 Z" id="Path_832"></path>
            <path d="M13.0896187,19.9722871 C11.6906614,18.0593109 10.9392682,15.7494983 10.9449614,13.3795464 C10.9449644,7.1599383 15.9849228,2.12 22.202,2.12 C28.4190694,2.12 33.459,7.15993057 33.459,13.377 C33.4816185,13.9600534 33.4399958,14.5011477 33.3358414,15.0318676 L35.4161586,15.4401324 C35.5521986,14.7469395 35.6065635,14.0401961 35.5781417,13.3343522 C35.579,5.9890869 29.5899131,0 22.202,0 C14.8140811,0 8.82492622,5.98909274 8.82492622,13.377 C8.81818926,16.1960927 9.71279146,18.9461353 11.3783813,21.2237129 L13.0896187,19.9722871 Z" id="Path_833"></path>
            <path d="M23.102,23.0862166 L20.722,22.9241006 L20.722,20.6993674 C19.6150183,20.6154474 18.5421635,20.2643001 17.5968154,19.6728834 L17.2561732,19.4597751 L18.1373446,16.9855253 L18.6709501,17.3423755 C19.5203679,17.910426 20.5185987,18.2150355 21.539,18.218 C22.8575508,18.218 23.694,17.5239969 23.694,16.543 C23.694,15.6029502 23.1063794,15.0184795 21.5107594,14.3732127 C18.8114775,13.3100042 17.538,12.0778423 17.5380457,10.0512421 C17.5646205,8.08522372 18.9689298,6.43493792 20.857,6.06034895 L20.857,3.819 L23.232,3.819 L23.232,5.98834784 C24.1539627,6.06911831 25.0499304,6.34684438 25.8584866,6.80497772 L26.231178,7.01614723 L25.3148454,9.43978061 L24.8004427,9.12735235 C24.0388887,8.66481393 23.1644531,8.42142725 22.272,8.424 C21.0367026,8.424 20.423,9.02929286 20.423,9.854 C20.423,10.6416101 20.9612803,11.1107174 22.8588098,11.9140196 C25.4407007,12.9669505 26.6019507,14.283478 26.6019507,16.4690222 C26.5728402,18.5415651 25.0943622,20.2836241 23.102,20.6824714 L23.102,23.0862166 Z" id="Path"></path>
            <path d="M0,27.625 L0,31.455 C0,35.7385352 6.48663035,38.899 14.277,38.899 C22.125788,38.899 28.554,35.8522797 28.554,31.577 L28.554,27.625 L26.554,27.625 L26.554,31.577 C26.554,34.3404975 21.1558686,36.899 14.277,36.899 C7.45251551,36.899 2,34.2423844 2,31.455 L2,27.625 L0,27.625 Z" id="Path_1057"></path>
            <path d="M0,31.71 L0,35.54 C0,39.8235352 6.48663035,42.984 14.277,42.984 C22.125788,42.984 28.554,39.9372797 28.554,35.662 L28.554,31.71 L26.554,31.71 L26.554,35.662 C26.554,38.4254975 21.1558686,40.984 14.277,40.984 C7.45251551,40.984 2,38.3273844 2,35.54 L2,31.71 L0,31.71 Z" id="Path_1058"></path>
            <path d="M0,35.795 L0,39.625 C0,43.9085352 6.48663035,47.069 14.277,47.069 C22.125788,47.069 28.554,44.0222797 28.554,39.747 L28.554,35.795 L26.554,35.795 L26.554,39.747 C26.554,42.5104975 21.1558686,45.069 14.277,45.069 C7.45251551,45.069 2,42.4123844 2,39.625 L2,35.795 L0,35.795 Z" id="Path_1059"></path>
            <path d="M14.277,34.753 C22.0935526,34.753 28.554,31.6470999 28.554,27.37 C28.554,23.0929001 22.0935526,19.987 14.277,19.987 C6.46044743,19.987 1.77635684e-15,23.0929001 1.77635684e-15,27.37 C1.77635684e-15,31.6470999 6.46044743,34.753 14.277,34.753 Z M14.277,32.753 C7.42818332,32.753 2,30.1433672 2,27.37 C2,24.5966328 7.42818332,21.987 14.277,21.987 C21.1258167,21.987 26.554,24.5966328 26.554,27.37 C26.554,30.1433672 21.1258167,32.753 14.277,32.753 Z" id="Ellipse_60"></path>
            <path d="M15.821,32.6635158 L13.522,32.8033318 L13.522,31.5327219 C12.6134572,31.4830592 11.7168545,31.2945366 10.8636133,30.9728544 L10.3133639,30.7654038 L11.2924321,29.0634915 L11.6946654,29.223351 C12.5213805,29.5519123 13.4040192,29.716853 14.298,29.709 C15.4609705,29.709 16.157,29.3512772 16.157,29.014 C16.157,28.6910448 15.6675855,28.3903951 14.3143315,28.050198 C11.7964689,27.4460096 10.694,26.785573 10.694,25.44 C10.694,24.1442703 11.8247473,23.3228389 13.646,23.0392057 L13.646,21.763 L15.882,21.763 L15.882,22.9615798 C16.6354655,23.0046757 17.3803933,23.1498433 18.0962362,23.3937106 L18.6854482,23.5944382 L17.658641,25.2855267 L17.2721872,25.1431862 C16.5377362,24.8726699 15.7602729,24.737746 14.973,24.745 C13.8866655,24.745 13.431,25.0265451 13.431,25.266 C13.431,25.4120158 14.0916456,25.800998 15.4955542,26.1705061 C17.849505,26.7708039 18.936,27.525898 18.936,28.881 C18.936,30.221722 17.759836,31.1101887 15.821,31.3729971 L15.821,32.6635158 Z" id="Path"></path>
            <path d="M29.618,19.455 L29.618,23.285 C29.618,27.5685352 36.1046304,30.729 43.895,30.729 C51.743788,30.729 58.172,27.6822797 58.172,23.407 L58.172,19.455 L56.172,19.455 L56.172,23.407 C56.172,26.1704975 50.7738686,28.729 43.895,28.729 C37.0705155,28.729 31.618,26.0723844 31.618,23.285 L31.618,19.455 L29.618,19.455 Z" id="Path"></path>
            <path d="M29.618,23.54 L29.618,27.37 C29.618,31.6535352 36.1046304,34.814 43.895,34.814 C51.743788,34.814 58.172,31.7672797 58.172,27.492 L58.172,23.54 L56.172,23.54 L56.172,27.492 C56.172,30.2554975 50.7738686,32.814 43.895,32.814 C37.0705155,32.814 31.618,30.1573844 31.618,27.37 L31.618,23.54 L29.618,23.54 Z" id="Path_1062"></path>
            <path d="M29.618,27.625 L29.618,31.455 C29.618,35.7385352 36.1046304,38.899 43.895,38.899 C51.743788,38.899 58.172,35.8522797 58.172,31.577 L58.172,27.625 L56.172,27.625 L56.172,31.577 C56.172,34.3404975 50.7738686,36.899 43.895,36.899 C37.0705155,36.899 31.618,34.2423844 31.618,31.455 L31.618,27.625 L29.618,27.625 Z" id="Path_1063"></path>
            <path d="M29.618,31.71 L29.618,35.54 C29.618,39.8235352 36.1046304,42.984 43.895,42.984 C51.743788,42.984 58.172,39.9372797 58.172,35.662 L58.172,31.71 L56.172,31.71 L56.172,35.662 C56.172,38.4254975 50.7738686,40.984 43.895,40.984 C37.0705155,40.984 31.618,38.3273844 31.618,35.54 L31.618,31.71 L29.618,31.71 Z" id="Path_1064"></path>
            <path d="M29.618,35.795 L29.618,39.625 C29.618,43.9085352 36.1046304,47.069 43.895,47.069 C51.743788,47.069 58.172,44.0222797 58.172,39.747 L58.172,35.795 L56.172,35.795 L56.172,39.747 C56.172,42.5104975 50.7738686,45.069 43.895,45.069 C37.0705155,45.069 31.618,42.4123844 31.618,39.625 L31.618,35.795 L29.618,35.795 Z" id="Path_1065"></path>
            <path d="M43.895,11.816 C51.7115526,11.816 58.172,14.9219001 58.172,19.199 C58.172,23.4760999 51.7115526,26.582 43.895,26.582 C36.0784474,26.582 29.618,23.4760999 29.618,19.199 C29.618,14.9219001 36.0784474,11.816 43.895,11.816 Z M43.895,13.816 C37.0461833,13.816 31.618,16.4256328 31.618,19.199 C31.618,21.9723672 37.0461833,24.582 43.895,24.582 C50.7438167,24.582 56.172,21.9723672 56.172,19.199 C56.172,16.4256328 50.7438167,13.816 43.895,13.816 Z" id="Combined-Shape"></path>
            <path d="M45.437,24.4934938 L43.139,24.6333566 L43.139,23.3627132 C42.2304632,23.3130379 41.3338663,23.1245198 40.4806235,22.8028582 L39.9303574,22.595415 L40.9094263,20.8935016 L41.311653,21.0533461 C42.1383829,21.3818878 43.0210258,21.5468293 43.915,21.539 C45.0779705,21.539 45.774,21.1812772 45.774,20.844 C45.774,20.5210448 45.2845855,20.2203951 43.9313855,19.8802109 C41.4133571,19.2762785 40.311,18.6157599 40.311,17.27 C40.311,15.9742703 41.4417473,15.1528389 43.263,14.8692057 L43.263,13.593 L45.499,13.593 L45.499,14.7915798 C46.2524655,14.8346757 46.9973933,14.9798433 47.7132362,15.2237106 L48.3024482,15.4244382 L47.275641,17.1155267 L46.8891872,16.9731862 C46.1547362,16.7026699 45.3772729,16.567746 44.59,16.575 C43.9678641,16.575 43.5240406,16.6760632 43.2604187,16.838822 C43.1033025,16.9358247 43.047,17.0267106 43.047,17.096 C43.047,17.2420158 43.7076456,17.630998 45.1115542,18.0005061 C47.465505,18.6008039 48.552,19.355898 48.552,20.711 C48.552,22.051722 47.375836,22.9401887 45.437,23.2029971 L45.437,24.4934938 Z" id="Path"></path>
        </g>
    </g>
</svg>