<svg xmlns="http://www.w3.org/2000/svg" width="19.547" height="22.446" viewBox="0 0 19.547 22.446">
  <g id="icon_regis_user" transform="translate(-10.44 -8.908)">
    <circle id="Ellipse_88" data-name="Ellipse 88" cx="4.543" cy="4.543" r="4.543" transform="translate(15.67 9.908)" fill="none" stroke="#4d4d4d" stroke-miterlimit="10" stroke-width="2"/>
    <path id="Path_1646" data-name="Path 1646" d="M28.658,30.354a10.843,10.843,0,0,0,.329-2.466,8.774,8.774,0,1,0-17.547.028,10.68,10.68,0,0,0,.328,2.438Z" fill="none" stroke="#4d4d4d" stroke-miterlimit="10" stroke-width="2"/>
  </g>
</svg>
