<svg xmlns="http://www.w3.org/2000/svg" width="54.169" height="40.008" viewBox="0 0 54.169 40.008">
  <g id="icon-setting" transform="translate(-2146.076 -452.276)">
    <path id="Subtraction_4" data-name="Subtraction 4" d="M20.233,36.449H15.095L13.015,33a15.48,15.48,0,0,1-2.065-1.175L6.63,32.971,3.041,29.334,4.312,24.91a13.2,13.2,0,0,1-.564-1.882L0,20.813V15.675l3.851-2.264a1.816,1.816,0,0,0,.105-.758,1.648,1.648,0,0,1,.117-.767L2.835,7.195,6.456,3.533,11.173,4.86a12.759,12.759,0,0,1,1.4-.433L15.08,0h5.138l2.573,4.526-.135-.445a13.782,13.782,0,0,1,1.444.6l4.646-1.223,3.637,3.637L31.2,11.65c.217.449.443.934.627,1.429h.087l3.923,2.572v5.138l-3.883,2.589a15.2,15.2,0,0,1-.794,1.707l1.128,4.288L28.651,33.05,24.386,32a14.866,14.866,0,0,1-2.057,1.009l-2.1,3.438ZM18.424,8.724a8.5,8.5,0,1,0,8.5,8.5A8.51,8.51,0,0,0,18.424,8.724Z" transform="translate(2147.076 453.276)" fill="none" stroke="#8393ca" stroke-width="2"/>
    <path id="Subtraction_5" data-name="Subtraction 5" d="M7.672,18.872h0l-2.5-.8-.349-2.38c-.329-.275-.647-.568-.943-.871H1.426L.257,12.493l1.487-2.052a8.17,8.17,0,0,1-.071-1.128L0,7.569.841,5.088,3.2,4.8l.142-.187c.152-.2.324-.428.462-.582l.133-2.472L6.267.38,8.318,1.754a4.05,4.05,0,0,1,.872-.062L10.985,0l2.493.81.512,2.452a4.963,4.963,0,0,1,.554.472l2.534.093,1.2,2.349L16.9,8.226a5.519,5.519,0,0,1,.092.728l1.836,1.764-.8,2.492-2.5.76a8.591,8.591,0,0,1-.657.707l.134,2.441-2.339,1.22L10.5,16.975a6.6,6.6,0,0,1-1.087.1L7.672,18.872ZM9,5.5A3.5,3.5,0,1,0,12.5,9,3.5,3.5,0,0,0,9,5.5Z" transform="translate(2180.5 472.5)" fill="none" stroke="#8393ca" stroke-miterlimit="10" stroke-width="1.6"/>
  </g>
</svg>
