<svg xmlns="http://www.w3.org/2000/svg" width="22" height="22" viewBox="0 0 22 22">
  <g id="icon-down-red" transform="translate(-597 -236)">
    <g id="Ellipse_82" data-name="Ellipse 82" transform="translate(597 236)" fill="none" stroke="#ed1e26" stroke-width="1">
      <circle cx="11" cy="11" r="11" stroke="none"/>
      <circle cx="11" cy="11" r="10.5" fill="none"/>
    </g>
    <path id="Polygon_1" data-name="Polygon 1" d="M6,0l6,9H0Z" transform="translate(614 253) rotate(180)" fill="#ed1c24"/>
  </g>
</svg>
