<svg xmlns="http://www.w3.org/2000/svg" width="13.223" height="15.172" viewBox="0 0 13.223 15.172">
  <g id="icon_user_blue" transform="translate(-352.384 911.75)">
    <path id="Path_1388" data-name="Path 1388" d="M661.1,493.72a3.034,3.034,0,1,1,.886,2.149A3.04,3.04,0,0,1,661.1,493.72Z" transform="translate(-305.138 -1401.68)" fill="none" stroke="#0285f9" stroke-miterlimit="10" stroke-width="1.5"/>
    <path id="Path_1389" data-name="Path 1389" d="M668.335,507.491a7.277,7.277,0,0,0,.219-1.649,5.862,5.862,0,1,0-11.723,0,7.135,7.135,0,0,0,.219,1.63Z" transform="translate(-303.696 -1404.82)" fill="none" stroke="#0285f9" stroke-miterlimit="10" stroke-width="1.5"/>
  </g>
</svg>
