<svg xmlns="http://www.w3.org/2000/svg" xmlns:xlink="http://www.w3.org/1999/xlink" width="20" height="20" viewBox="0 0 20 20">
  <defs>
    <clipPath id="clip-path">
      <circle id="Ellipse_2" data-name="Ellipse 2" cx="10" cy="10" r="10" fill="#007d3b"/>
    </clipPath>
  </defs>
  <g id="icon-plus" transform="translate(-270 -128)">
    <circle id="Ellipse_1" data-name="Ellipse 1" cx="10" cy="10" r="10" transform="translate(270 128)" fill="#009245"/>
    <g id="Group_2" data-name="Group 2" transform="translate(270 128)">
      <g id="Group_1" data-name="Group 1" transform="translate(0 0)" clip-path="url(#clip-path)">
        <path id="Path_1" data-name="Path 1" d="M25.065,18.1l-6.2,6.2L9.532,14.92l-.014-2.292,3.895.014V8.73l2.288.006Z" transform="translate(-4.516 -3.738)" fill="#007d3b"/>
      </g>
    </g>
    <path id="Path_2" data-name="Path 2" d="M20.191,12.875H16.07V8.753H13.645v4.122H9.523V15.3h4.122v4.122H16.07V15.3h4.122Z" transform="translate(265.184 123.954)" fill="#fff"/>
  </g>
</svg>
