<svg xmlns="http://www.w3.org/2000/svg" width="28.805" height="40.484" viewBox="0 0 28.805 40.484">
  <g id="menu_home2" transform="translate(-741 -331.562)">
    <path id="Path_1574" data-name="Path 1574" d="M49.185,590.238,36.218,576.4,22.38,590.238v24.208h26.8Z" transform="translate(719.62 -243.4)" fill="none" stroke="#18baec" stroke-width="2"/>
    <rect id="Rectangle_195" data-name="Rectangle 195" width="5.982" height="12.818" transform="translate(747.982 357.773)" fill="none" stroke="#18baec" stroke-width="1.5"/>
    <rect id="Rectangle_196" data-name="Rectangle 196" width="5.127" height="4.273" transform="translate(758.236 360.336)" fill="none" stroke="#18baec" stroke-width="1.5"/>
  </g>
</svg>
