<svg xmlns="http://www.w3.org/2000/svg" width="9.892" height="17.502" viewBox="0 0 9.892 17.502">
  <g id="usericon_usermanual" transform="translate(-733.873 532.877)">
    <g id="Group_129" data-name="Group 129" transform="translate(734.377 -532.877)">
      <path id="Path_1044" data-name="Path 1044" d="M920.857,773.189c-.124.081-.147.058-.237.14a4.08,4.08,0,0,0-1.368,3.407v6.977c0,1.593.622,3.233,2.781,2.849l6.081-2.454V774a5.325,5.325,0,0,0-.147-1.663c-.1-.326-.848-.07-1.458-.488s.215-.884-.893-.523l-3.64,1.221" transform="translate(-919.238 -769.619)" fill="none" stroke="#0884f4" stroke-miterlimit="10" stroke-width="1"/>
      <path id="Path_1067" data-name="Path 1067" d="M920.18,773.14s.6,1.628,1.921,1.244l6.013-2.244" transform="translate(-919.115 -769.465)" fill="none" stroke="#0884f4" stroke-miterlimit="10" stroke-width="1"/>
      <path id="Path_1068" data-name="Path 1068" d="M921.81,773.852a8.172,8.172,0,0,0-1.91-3.1l1.526.2.271-1.1a10.208,10.208,0,0,1,1.718,3.384Z" transform="translate(-919.151 -769.84)" fill="#0884f4"/>
      <path id="Path_1069" data-name="Path 1069" d="M923.89,777.36v1.907s-.147,1.9,1.277,1.012" transform="translate(-918.632 -768.615)" fill="none" stroke="#0884f4" stroke-miterlimit="10" stroke-width="1"/>
      <path id="Path_1070" data-name="Path 1070" d="M923.15,776.242a.78.78,0,1,1,.78.8.791.791,0,0,1-.78-.8Z" transform="translate(-918.728 -768.928)" fill="#0884f4"/>
    </g>
  </g>
</svg>
